{
    "levelName": "n2",
    "pathCoordinates": [
        {
            "x": 0.0,
            "y": 0.0,
            "z": 0.0
        },
        {
            "x": 0.0,
            "y": 0.0,
            "z": 8.0
        },
        {
            "x": 0.0,
            "y": -1.0,
            "z": 16.0
        },
        {
            "x": 0.0,
            "y": 0.0,
            "z": 24.0
        },
        {
            "x": 0.0,
            "y": 0.0,
            "z": 32.0
        },
        {
            "x": 0.0,
            "y": 0.0,
            "z": 40.0
        },
        {
            "x": 0.0,
            "y": 0.0,
            "z": 48.0
        },
        {
            "x": 0.0,
            "y": 0.0,
            "z": 56.0
        },
        {
            "x": 0.0,
            "y": 0.0,
            "z": 64.0
        },
        {
            "x": 0.0,
            "y": 0.0,
            "z": 72.0
        },
        {
            "x": 0.0,
            "y": 0.0,
            "z": 80.0
        },
        {
            "x": 0.0,
            "y": -1.0,
            "z": 88.0
        },
        {
            "x": 0.0,
            "y": 0.0,
            "z": 96.0
        },
        {
            "x": 0.0,
            "y": 0.0,
            "z": 104.0
        },
        {
            "x": 0.0,
            "y": 0.0,
            "z": 112.0
        },
        {
            "x": 0.0,
            "y": 0.0,
            "z": 120.0
        },
        {
            "x": 0.0,
            "y": 0.0,
            "z": 128.0
        },
        {
            "x": 0.0,
            "y": 0.0,
            "z": 136.0
        },
        {
            "x": 0.0,
            "y": -1.0,
            "z": 144.0
        },
        {
            "x": -3.9600000381469728,
            "y": 0.9399999976158142,
            "z": 167.60000610351563
        }
    ],
    "pathTypes": [
        "Tile",
        "Tile",
        "Basket",
        "Tile",
        "Tile",
        "Tile",
        "Tile",
        "Tile",
        "Tile",
        "Tile",
        "Tile",
        "Basket",
        "Tile",
        "Tile",
        "Tile",
        "Tile",
        "Tile",
        "Tile",
        "Basket",
        "End Level Path"
    ],
    "allScoreCoordinates": [
        {
            "x": -3.9600000381469728,
            "y": 1.0,
            "z": 154.60000610351563
        },
        {
            "x": -3.9600000381469728,
            "y": 1.0,
            "z": 156.20001220703126
        },
        {
            "x": -3.9600000381469728,
            "y": 1.0,
            "z": 157.80001831054688
        }
    ],
    "allScores": [
        10,
        20,
        30
    ],
    "objectCoordinates": [
        {
            "x": -5.455974578857422,
            "y": 1.1299999952316285,
            "z": 5.425583839416504
        },
        {
            "x": -4.0,
            "y": 1.1299999952316285,
            "z": 10.667023658752442
        },
        {
            "x": -2.8556652069091799,
            "y": 1.1299999952316285,
            "z": 7.250692844390869
        },
        {
            "x": -5.138707637786865,
            "y": 1.1299999952316285,
            "z": 35.65510940551758
        },
        {
            "x": -3.556771755218506,
            "y": 1.1299999952316285,
            "z": 55.36390686035156
        },
        {
            "x": -2.8289008140563967,
            "y": 1.1299999952316285,
            "z": 42.04267883300781
        },
        {
            "x": -4.233938217163086,
            "y": 1.1299999952316285,
            "z": 72.4046859741211
        },
        {
            "x": -4.227780342102051,
            "y": 1.1299999952316285,
            "z": 118.11585235595703
        },
        {
            "x": -4.110970973968506,
            "y": 1.1299999952316285,
            "z": 4.987879276275635
        },
        {
            "x": -2.785510540008545,
            "y": 1.1299999952316285,
            "z": 4.405161380767822
        },
        {
            "x": -4.7411723136901859,
            "y": 1.1299999952316285,
            "z": 46.52072525024414
        },
        {
            "x": -2.893653154373169,
            "y": 1.1299999952316285,
            "z": 115.15274810791016
        }
    ],
    "objectTypes": [
        "Sphere",
        "Cylinder",
        "Cube",
        "Sphere",
        "Cylinder",
        "Cube",
        "Cube",
        "Sphere",
        "Sphere",
        "Sphere",
        "Cylinder",
        "Cube"
    ],
    "phaseRequirements": [
        "1",
        "1",
        "1"
    ]
}